<?xml version="1.0" encoding="utf-8"?>
<!DOCTYPE eagle SYSTEM "eagle.dtd">
<eagle version="8.0.2">
<drawing>
<settings>
<setting alwaysvectorfont="no"/>
<setting verticaltext="up"/>
</settings>
<grid distance="0.1" unitdist="inch" unit="inch" style="lines" multiple="1" display="no" altdistance="0.01" altunitdist="inch" altunit="inch"/>
<layers>
<layer number="1" name="Top" color="4" fill="1" visible="no" active="no"/>
<layer number="2" name="Route2" color="1" fill="3" visible="no" active="no"/>
<layer number="3" name="Route3" color="4" fill="3" visible="no" active="no"/>
<layer number="4" name="Route4" color="1" fill="4" visible="no" active="no"/>
<layer number="5" name="Route5" color="4" fill="4" visible="no" active="no"/>
<layer number="6" name="Route6" color="1" fill="8" visible="no" active="no"/>
<layer number="7" name="Route7" color="4" fill="8" visible="no" active="no"/>
<layer number="8" name="Route8" color="1" fill="2" visible="no" active="no"/>
<layer number="9" name="Route9" color="4" fill="2" visible="no" active="no"/>
<layer number="10" name="Route10" color="1" fill="7" visible="no" active="no"/>
<layer number="11" name="Route11" color="4" fill="7" visible="no" active="no"/>
<layer number="12" name="Route12" color="1" fill="5" visible="no" active="no"/>
<layer number="13" name="Route13" color="4" fill="5" visible="no" active="no"/>
<layer number="14" name="Route14" color="1" fill="6" visible="no" active="no"/>
<layer number="15" name="Route15" color="4" fill="6" visible="no" active="no"/>
<layer number="16" name="Bottom" color="1" fill="1" visible="no" active="no"/>
<layer number="17" name="Pads" color="2" fill="1" visible="no" active="no"/>
<layer number="18" name="Vias" color="2" fill="1" visible="no" active="no"/>
<layer number="19" name="Unrouted" color="6" fill="1" visible="no" active="no"/>
<layer number="20" name="Dimension" color="15" fill="1" visible="no" active="no"/>
<layer number="21" name="tPlace" color="7" fill="1" visible="no" active="no"/>
<layer number="22" name="bPlace" color="7" fill="1" visible="no" active="no"/>
<layer number="23" name="tOrigins" color="15" fill="1" visible="no" active="no"/>
<layer number="24" name="bOrigins" color="15" fill="1" visible="no" active="no"/>
<layer number="25" name="tNames" color="7" fill="1" visible="no" active="no"/>
<layer number="26" name="bNames" color="7" fill="1" visible="no" active="no"/>
<layer number="27" name="tValues" color="7" fill="1" visible="no" active="no"/>
<layer number="28" name="bValues" color="7" fill="1" visible="no" active="no"/>
<layer number="29" name="tStop" color="7" fill="3" visible="no" active="no"/>
<layer number="30" name="bStop" color="7" fill="6" visible="no" active="no"/>
<layer number="31" name="tCream" color="7" fill="4" visible="no" active="no"/>
<layer number="32" name="bCream" color="7" fill="5" visible="no" active="no"/>
<layer number="33" name="tFinish" color="6" fill="3" visible="no" active="no"/>
<layer number="34" name="bFinish" color="6" fill="6" visible="no" active="no"/>
<layer number="35" name="tGlue" color="7" fill="4" visible="no" active="no"/>
<layer number="36" name="bGlue" color="7" fill="5" visible="no" active="no"/>
<layer number="37" name="tTest" color="7" fill="1" visible="no" active="no"/>
<layer number="38" name="bTest" color="7" fill="1" visible="no" active="no"/>
<layer number="39" name="tKeepout" color="4" fill="11" visible="no" active="no"/>
<layer number="40" name="bKeepout" color="1" fill="11" visible="no" active="no"/>
<layer number="41" name="tRestrict" color="4" fill="10" visible="no" active="no"/>
<layer number="42" name="bRestrict" color="1" fill="10" visible="no" active="no"/>
<layer number="43" name="vRestrict" color="2" fill="10" visible="no" active="no"/>
<layer number="44" name="Drills" color="7" fill="1" visible="no" active="no"/>
<layer number="45" name="Holes" color="7" fill="1" visible="no" active="no"/>
<layer number="46" name="Milling" color="3" fill="1" visible="no" active="no"/>
<layer number="47" name="Measures" color="7" fill="1" visible="no" active="no"/>
<layer number="48" name="Document" color="7" fill="1" visible="no" active="no"/>
<layer number="49" name="Reference" color="7" fill="1" visible="no" active="no"/>
<layer number="50" name="dxf" color="7" fill="1" visible="no" active="no"/>
<layer number="51" name="tDocu" color="7" fill="1" visible="no" active="no"/>
<layer number="52" name="bDocu" color="7" fill="1" visible="no" active="no"/>
<layer number="53" name="tGND_GNDA" color="7" fill="9" visible="no" active="no"/>
<layer number="54" name="bGND_GNDA" color="1" fill="9" visible="no" active="no"/>
<layer number="56" name="wert" color="7" fill="1" visible="no" active="no"/>
<layer number="57" name="tCAD" color="7" fill="1" visible="no" active="no"/>
<layer number="59" name="tCarbon" color="7" fill="1" visible="no" active="no"/>
<layer number="60" name="bCarbon" color="7" fill="1" visible="no" active="no"/>
<layer number="90" name="Modules" color="5" fill="1" visible="yes" active="yes"/>
<layer number="91" name="Nets" color="2" fill="1" visible="yes" active="yes"/>
<layer number="92" name="Busses" color="1" fill="1" visible="yes" active="yes"/>
<layer number="93" name="Pins" color="2" fill="1" visible="no" active="yes"/>
<layer number="94" name="Symbols" color="4" fill="1" visible="yes" active="yes"/>
<layer number="95" name="Names" color="7" fill="1" visible="yes" active="yes"/>
<layer number="96" name="Values" color="7" fill="1" visible="yes" active="yes"/>
<layer number="97" name="Info" color="7" fill="1" visible="yes" active="yes"/>
<layer number="98" name="Guide" color="6" fill="1" visible="yes" active="yes"/>
<layer number="99" name="SpiceOrder" color="7" fill="1" visible="yes" active="yes"/>
<layer number="100" name="Muster" color="7" fill="1" visible="no" active="no"/>
<layer number="101" name="Patch_Top" color="12" fill="4" visible="no" active="yes"/>
<layer number="102" name="Vscore" color="7" fill="1" visible="no" active="yes"/>
<layer number="103" name="tMap" color="7" fill="1" visible="no" active="yes"/>
<layer number="104" name="Name" color="7" fill="1" visible="no" active="yes"/>
<layer number="105" name="tPlate" color="7" fill="1" visible="no" active="yes"/>
<layer number="106" name="bPlate" color="7" fill="1" visible="no" active="yes"/>
<layer number="107" name="Crop" color="7" fill="1" visible="no" active="yes"/>
<layer number="108" name="tplace-old" color="10" fill="1" visible="no" active="yes"/>
<layer number="109" name="ref-old" color="11" fill="1" visible="no" active="yes"/>
<layer number="110" name="fp0" color="7" fill="1" visible="no" active="yes"/>
<layer number="111" name="LPC17xx" color="7" fill="1" visible="no" active="yes"/>
<layer number="112" name="tSilk" color="7" fill="1" visible="no" active="yes"/>
<layer number="113" name="IDFDebug" color="7" fill="1" visible="no" active="yes"/>
<layer number="116" name="Patch_BOT" color="9" fill="4" visible="no" active="yes"/>
<layer number="118" name="Rect_Pads" color="7" fill="1" visible="no" active="yes"/>
<layer number="121" name="_tsilk" color="7" fill="1" visible="no" active="yes"/>
<layer number="122" name="_bsilk" color="7" fill="1" visible="no" active="yes"/>
<layer number="123" name="tTestmark" color="7" fill="1" visible="no" active="yes"/>
<layer number="124" name="bTestmark" color="7" fill="1" visible="no" active="yes"/>
<layer number="125" name="_tNames" color="7" fill="1" visible="no" active="yes"/>
<layer number="126" name="_bNames" color="7" fill="1" visible="no" active="yes"/>
<layer number="127" name="_tValues" color="7" fill="1" visible="no" active="yes"/>
<layer number="128" name="_bValues" color="7" fill="1" visible="no" active="yes"/>
<layer number="129" name="Mask" color="7" fill="1" visible="no" active="yes"/>
<layer number="131" name="tAdjust" color="7" fill="1" visible="no" active="yes"/>
<layer number="132" name="bAdjust" color="7" fill="1" visible="no" active="yes"/>
<layer number="144" name="Drill_legend" color="7" fill="1" visible="no" active="yes"/>
<layer number="150" name="Notes" color="7" fill="1" visible="no" active="yes"/>
<layer number="151" name="HeatSink" color="7" fill="1" visible="no" active="yes"/>
<layer number="152" name="_bDocu" color="7" fill="1" visible="no" active="yes"/>
<layer number="153" name="FabDoc1" color="7" fill="1" visible="no" active="yes"/>
<layer number="154" name="FabDoc2" color="7" fill="1" visible="no" active="yes"/>
<layer number="155" name="FabDoc3" color="7" fill="1" visible="no" active="yes"/>
<layer number="199" name="Contour" color="7" fill="1" visible="no" active="yes"/>
<layer number="200" name="200bmp" color="1" fill="10" visible="no" active="yes"/>
<layer number="201" name="201bmp" color="2" fill="10" visible="no" active="yes"/>
<layer number="202" name="202bmp" color="3" fill="10" visible="no" active="yes"/>
<layer number="203" name="203bmp" color="4" fill="10" visible="no" active="yes"/>
<layer number="204" name="204bmp" color="5" fill="10" visible="no" active="yes"/>
<layer number="205" name="205bmp" color="6" fill="10" visible="no" active="yes"/>
<layer number="206" name="206bmp" color="7" fill="10" visible="no" active="yes"/>
<layer number="207" name="207bmp" color="8" fill="10" visible="no" active="yes"/>
<layer number="208" name="208bmp" color="9" fill="10" visible="no" active="yes"/>
<layer number="209" name="209bmp" color="7" fill="1" visible="no" active="yes"/>
<layer number="210" name="210bmp" color="7" fill="1" visible="no" active="yes"/>
<layer number="211" name="211bmp" color="7" fill="1" visible="no" active="yes"/>
<layer number="212" name="212bmp" color="7" fill="1" visible="no" active="yes"/>
<layer number="213" name="213bmp" color="7" fill="1" visible="no" active="yes"/>
<layer number="214" name="214bmp" color="7" fill="1" visible="no" active="yes"/>
<layer number="215" name="215bmp" color="7" fill="1" visible="no" active="yes"/>
<layer number="216" name="216bmp" color="7" fill="1" visible="no" active="yes"/>
<layer number="217" name="217bmp" color="18" fill="1" visible="no" active="no"/>
<layer number="218" name="218bmp" color="19" fill="1" visible="no" active="no"/>
<layer number="219" name="219bmp" color="20" fill="1" visible="no" active="no"/>
<layer number="220" name="220bmp" color="21" fill="1" visible="no" active="no"/>
<layer number="221" name="221bmp" color="22" fill="1" visible="no" active="no"/>
<layer number="222" name="222bmp" color="23" fill="1" visible="no" active="no"/>
<layer number="223" name="223bmp" color="24" fill="1" visible="no" active="no"/>
<layer number="224" name="224bmp" color="25" fill="1" visible="no" active="no"/>
<layer number="225" name="225bmp" color="7" fill="1" visible="no" active="yes"/>
<layer number="226" name="226bmp" color="7" fill="1" visible="no" active="yes"/>
<layer number="227" name="227bmp" color="7" fill="1" visible="no" active="yes"/>
<layer number="228" name="228bmp" color="7" fill="1" visible="no" active="yes"/>
<layer number="229" name="229bmp" color="7" fill="1" visible="no" active="yes"/>
<layer number="230" name="230bmp" color="7" fill="1" visible="no" active="yes"/>
<layer number="231" name="231bmp" color="7" fill="1" visible="no" active="yes"/>
<layer number="248" name="Housing" color="7" fill="1" visible="no" active="yes"/>
<layer number="249" name="Edge" color="7" fill="1" visible="no" active="yes"/>
<layer number="250" name="Descript" color="3" fill="1" visible="no" active="no"/>
<layer number="251" name="SMDround" color="12" fill="11" visible="no" active="no"/>
<layer number="254" name="cooling" color="7" fill="1" visible="no" active="yes"/>
<layer number="255" name="routoute" color="7" fill="1" visible="no" active="yes"/>
</layers>
<schematic xreflabel="%F%N/%S.%C%R" xrefpart="/%S.%C%R">
<libraries>
<library name="fab">
<packages>
<package name="SOIC14">
<description>&lt;b&gt;Small Outline Package&lt;/b&gt;</description>
<wire x1="-4.267" y1="-1.791" x2="4.267" y2="-1.791" width="0.1524" layer="51"/>
<wire x1="4.267" y1="-1.791" x2="4.267" y2="1.791" width="0.1524" layer="21"/>
<wire x1="4.267" y1="1.791" x2="-4.267" y2="1.791" width="0.1524" layer="51"/>
<wire x1="-4.267" y1="1.791" x2="-4.267" y2="-1.791" width="0.1524" layer="21"/>
<circle x="-3.5052" y="-0.7747" radius="0.5334" width="0.1524" layer="21"/>
<smd name="1" x="-3.81" y="-2.6035" dx="0.6096" dy="2.2098" layer="1"/>
<smd name="14" x="-3.81" y="2.6035" dx="0.6096" dy="2.2098" layer="1"/>
<smd name="2" x="-2.54" y="-2.6035" dx="0.6096" dy="2.2098" layer="1"/>
<smd name="3" x="-1.27" y="-2.6035" dx="0.6096" dy="2.2098" layer="1"/>
<smd name="13" x="-2.54" y="2.6035" dx="0.6096" dy="2.2098" layer="1"/>
<smd name="12" x="-1.27" y="2.6035" dx="0.6096" dy="2.2098" layer="1"/>
<smd name="4" x="0" y="-2.6035" dx="0.6096" dy="2.2098" layer="1"/>
<smd name="11" x="0" y="2.6035" dx="0.6096" dy="2.2098" layer="1"/>
<smd name="5" x="1.27" y="-2.6035" dx="0.6096" dy="2.2098" layer="1"/>
<smd name="6" x="2.54" y="-2.6035" dx="0.6096" dy="2.2098" layer="1"/>
<smd name="10" x="1.27" y="2.6035" dx="0.6096" dy="2.2098" layer="1"/>
<smd name="9" x="2.54" y="2.6035" dx="0.6096" dy="2.2098" layer="1"/>
<smd name="7" x="3.81" y="-2.6035" dx="0.6096" dy="2.2098" layer="1"/>
<smd name="8" x="3.81" y="2.6035" dx="0.6096" dy="2.2098" layer="1"/>
<text x="-4.5085" y="-2.032" size="1.27" layer="25" ratio="10" rot="R90">&gt;NAME</text>
<text x="-2.54" y="-0.6985" size="1.27" layer="27" ratio="10">&gt;VALUE</text>
<rectangle x1="-3.9878" y1="1.8415" x2="-3.6322" y2="2.8575" layer="51"/>
<rectangle x1="-2.7178" y1="1.8415" x2="-2.3622" y2="2.8575" layer="51"/>
<rectangle x1="-1.4478" y1="1.8415" x2="-1.0922" y2="2.8575" layer="51"/>
<rectangle x1="-0.1778" y1="1.8415" x2="0.1778" y2="2.8575" layer="51"/>
<rectangle x1="1.0922" y1="1.8415" x2="1.4478" y2="2.8575" layer="51"/>
<rectangle x1="2.3622" y1="1.8415" x2="2.7178" y2="2.8575" layer="51"/>
<rectangle x1="3.6322" y1="1.8415" x2="3.9878" y2="2.8575" layer="51"/>
<rectangle x1="3.6322" y1="-2.8575" x2="3.9878" y2="-1.8415" layer="51"/>
<rectangle x1="2.3622" y1="-2.8575" x2="2.7178" y2="-1.8415" layer="51"/>
<rectangle x1="1.0922" y1="-2.8575" x2="1.4478" y2="-1.8415" layer="51"/>
<rectangle x1="-0.1778" y1="-2.8575" x2="0.1778" y2="-1.8415" layer="51"/>
<rectangle x1="-1.4478" y1="-2.8575" x2="-1.0922" y2="-1.8415" layer="51"/>
<rectangle x1="-2.7178" y1="-2.8575" x2="-2.3622" y2="-1.8415" layer="51"/>
<rectangle x1="-3.9878" y1="-2.8575" x2="-3.6322" y2="-1.8415" layer="51"/>
</package>
<package name="DIL14">
<description>&lt;b&gt;Dual In Line Package&lt;/b&gt;</description>
<wire x1="8.89" y1="2.921" x2="-8.89" y2="2.921" width="0.1524" layer="21"/>
<wire x1="-8.89" y1="-2.921" x2="8.89" y2="-2.921" width="0.1524" layer="21"/>
<wire x1="8.89" y1="2.921" x2="8.89" y2="-2.921" width="0.1524" layer="21"/>
<wire x1="-8.89" y1="2.921" x2="-8.89" y2="1.016" width="0.1524" layer="21"/>
<wire x1="-8.89" y1="-2.921" x2="-8.89" y2="-1.016" width="0.1524" layer="21"/>
<wire x1="-8.89" y1="1.016" x2="-8.89" y2="-1.016" width="0.1524" layer="21" curve="-180"/>
<pad name="1" x="-7.62" y="-3.81" drill="0.8128" shape="long" rot="R90"/>
<pad name="2" x="-5.08" y="-3.81" drill="0.8128" shape="long" rot="R90"/>
<pad name="7" x="7.62" y="-3.81" drill="0.8128" shape="long" rot="R90"/>
<pad name="8" x="7.62" y="3.81" drill="0.8128" shape="long" rot="R90"/>
<pad name="3" x="-2.54" y="-3.81" drill="0.8128" shape="long" rot="R90"/>
<pad name="4" x="0" y="-3.81" drill="0.8128" shape="long" rot="R90"/>
<pad name="6" x="5.08" y="-3.81" drill="0.8128" shape="long" rot="R90"/>
<pad name="5" x="2.54" y="-3.81" drill="0.8128" shape="long" rot="R90"/>
<pad name="9" x="5.08" y="3.81" drill="0.8128" shape="long" rot="R90"/>
<pad name="10" x="2.54" y="3.81" drill="0.8128" shape="long" rot="R90"/>
<pad name="11" x="0" y="3.81" drill="0.8128" shape="long" rot="R90"/>
<pad name="12" x="-2.54" y="3.81" drill="0.8128" shape="long" rot="R90"/>
<pad name="13" x="-5.08" y="3.81" drill="0.8128" shape="long" rot="R90"/>
<pad name="14" x="-7.62" y="3.81" drill="0.8128" shape="long" rot="R90"/>
<text x="-9.271" y="-3.048" size="1.27" layer="25" ratio="10" rot="R90">&gt;NAME</text>
<text x="-6.731" y="-0.635" size="1.27" layer="27" ratio="10">&gt;VALUE</text>
</package>
<package name="QFN/MLF20">
<description>&lt;b&gt;HP-VFQFP-N20&lt;/b&gt; Micro Lead Frame package (MLF)</description>
<wire x1="-2.375" y1="2.05" x2="-2.05" y2="2.375" width="0.254" layer="21"/>
<wire x1="-2.05" y1="2.375" x2="2.05" y2="2.375" width="0.254" layer="51"/>
<wire x1="2.05" y1="-2.375" x2="-2.05" y2="-2.375" width="0.254" layer="51"/>
<wire x1="-2.05" y1="-2.375" x2="-2.375" y2="-2.05" width="0.254" layer="21"/>
<wire x1="-2.375" y1="-2.05" x2="-2.375" y2="2.05" width="0.254" layer="51"/>
<wire x1="2.375" y1="2.05" x2="2.375" y2="-2.05" width="0.254" layer="51"/>
<wire x1="2.05" y1="2.375" x2="2.375" y2="2.05" width="0.254" layer="21"/>
<wire x1="2.375" y1="-2.05" x2="2.05" y2="-2.375" width="0.254" layer="21"/>
<circle x="-1.55" y="1.55" radius="0.15" width="0.254" layer="21"/>
<smd name="1" x="-2.25" y="1.3" dx="0.9" dy="0.35" layer="1" roundness="50"/>
<smd name="2" x="-2.25" y="0.65" dx="0.9" dy="0.35" layer="1" roundness="50"/>
<smd name="3" x="-2.25" y="0" dx="0.9" dy="0.35" layer="1" roundness="50"/>
<smd name="4" x="-2.25" y="-0.65" dx="0.9" dy="0.35" layer="1" roundness="50"/>
<smd name="5" x="-2.25" y="-1.3" dx="0.9" dy="0.35" layer="1" roundness="50"/>
<smd name="6" x="-1.3" y="-2.25" dx="0.35" dy="0.9" layer="1" roundness="50"/>
<smd name="7" x="-0.65" y="-2.25" dx="0.35" dy="0.9" layer="1" roundness="50"/>
<smd name="8" x="0" y="-2.25" dx="0.35" dy="0.9" layer="1" roundness="50"/>
<smd name="9" x="0.65" y="-2.25" dx="0.35" dy="0.9" layer="1" roundness="50"/>
<smd name="10" x="1.3" y="-2.25" dx="0.35" dy="0.9" layer="1" roundness="50"/>
<smd name="11" x="2.25" y="-1.3" dx="0.9" dy="0.35" layer="1" roundness="50"/>
<smd name="12" x="2.25" y="-0.65" dx="0.9" dy="0.35" layer="1" roundness="50"/>
<smd name="13" x="2.25" y="0" dx="0.9" dy="0.35" layer="1" roundness="50"/>
<smd name="14" x="2.25" y="0.65" dx="0.9" dy="0.35" layer="1" roundness="50"/>
<smd name="15" x="2.25" y="1.3" dx="0.9" dy="0.35" layer="1" roundness="50"/>
<smd name="16" x="1.3" y="2.25" dx="0.35" dy="0.9" layer="1" roundness="50"/>
<smd name="17" x="0.65" y="2.25" dx="0.35" dy="0.9" layer="1" roundness="50"/>
<smd name="18" x="0" y="2.25" dx="0.35" dy="0.9" layer="1" roundness="50"/>
<smd name="19" x="-0.65" y="2.25" dx="0.35" dy="0.9" layer="1" roundness="50"/>
<smd name="20" x="-1.3" y="2.25" dx="0.35" dy="0.9" layer="1" roundness="50"/>
<text x="-2.54" y="3.175" size="1.27" layer="25">&gt;NAME</text>
<text x="-2.54" y="-4.445" size="1.27" layer="27">&gt;VALUE</text>
<rectangle x1="-2.35" y1="1.15" x2="-1.9" y2="1.45" layer="51"/>
<rectangle x1="-2.35" y1="0.5" x2="-1.9" y2="0.8" layer="51"/>
<rectangle x1="-2.35" y1="-0.15" x2="-1.9" y2="0.15" layer="51"/>
<rectangle x1="-2.35" y1="-0.8" x2="-1.9" y2="-0.5" layer="51"/>
<rectangle x1="-2.35" y1="-1.45" x2="-1.9" y2="-1.15" layer="51"/>
<rectangle x1="-1.45" y1="-2.35" x2="-1.15" y2="-1.9" layer="51"/>
<rectangle x1="-0.8" y1="-2.35" x2="-0.5" y2="-1.9" layer="51"/>
<rectangle x1="-0.15" y1="-2.35" x2="0.15" y2="-1.9" layer="51"/>
<rectangle x1="0.5" y1="-2.35" x2="0.8" y2="-1.9" layer="51"/>
<rectangle x1="1.15" y1="-2.35" x2="1.45" y2="-1.9" layer="51"/>
<rectangle x1="1.9" y1="-1.45" x2="2.35" y2="-1.15" layer="51"/>
<rectangle x1="1.9" y1="-0.8" x2="2.35" y2="-0.5" layer="51"/>
<rectangle x1="1.9" y1="-0.15" x2="2.35" y2="0.15" layer="51"/>
<rectangle x1="1.9" y1="0.5" x2="2.35" y2="0.8" layer="51"/>
<rectangle x1="1.9" y1="1.15" x2="2.35" y2="1.45" layer="51"/>
<rectangle x1="1.15" y1="1.9" x2="1.45" y2="2.35" layer="51"/>
<rectangle x1="0.5" y1="1.9" x2="0.8" y2="2.35" layer="51"/>
<rectangle x1="-0.15" y1="1.9" x2="0.15" y2="2.35" layer="51"/>
<rectangle x1="-0.8" y1="1.9" x2="-0.5" y2="2.35" layer="51"/>
<rectangle x1="-1.45" y1="1.9" x2="-1.15" y2="2.35" layer="51"/>
</package>
<package name="1X06SMD">
<smd name="1" x="0" y="6.35" dx="2.54" dy="1.27" layer="1"/>
<smd name="2" x="0" y="3.81" dx="2.54" dy="1.27" layer="1"/>
<smd name="3" x="0" y="1.27" dx="2.54" dy="1.27" layer="1"/>
<smd name="4" x="0" y="-1.27" dx="2.54" dy="1.27" layer="1"/>
<smd name="5" x="0" y="-3.81" dx="2.54" dy="1.27" layer="1"/>
<smd name="6" x="0" y="-6.35" dx="2.54" dy="1.27" layer="1"/>
<text x="-1.905" y="-3.175" size="1.27" layer="25" rot="R90">&gt;NAME</text>
</package>
<package name="2X03SMD">
<smd name="1" x="-2.54" y="2.54" dx="2.54" dy="1.27" layer="1"/>
<smd name="3" x="-2.54" y="0" dx="2.54" dy="1.27" layer="1"/>
<smd name="5" x="-2.54" y="-2.54" dx="2.54" dy="1.27" layer="1"/>
<smd name="2" x="2.92" y="2.54" dx="2.54" dy="1.27" layer="1"/>
<smd name="4" x="2.92" y="0" dx="2.54" dy="1.27" layer="1"/>
<smd name="6" x="2.92" y="-2.54" dx="2.54" dy="1.27" layer="1"/>
<text x="-5.08" y="2.54" size="1.27" layer="27">1</text>
<text x="-3.81" y="3.81" size="1.27" layer="25">&gt;NAME</text>
<text x="-3.81" y="-5.08" size="1.27" layer="27">&gt;VALUE</text>
</package>
<package name="6MM_SWITCH">
<description>&lt;b&gt;OMRON SWITCH&lt;/b&gt;</description>
<wire x1="3.302" y1="-0.762" x2="3.048" y2="-0.762" width="0.1524" layer="21"/>
<wire x1="3.302" y1="-0.762" x2="3.302" y2="0.762" width="0.1524" layer="21"/>
<wire x1="3.048" y1="0.762" x2="3.302" y2="0.762" width="0.1524" layer="21"/>
<wire x1="3.048" y1="1.016" x2="3.048" y2="2.54" width="0.1524" layer="51"/>
<wire x1="-3.302" y1="0.762" x2="-3.048" y2="0.762" width="0.1524" layer="21"/>
<wire x1="-3.302" y1="0.762" x2="-3.302" y2="-0.762" width="0.1524" layer="21"/>
<wire x1="-3.048" y1="-0.762" x2="-3.302" y2="-0.762" width="0.1524" layer="21"/>
<wire x1="3.048" y1="2.54" x2="2.54" y2="3.048" width="0.1524" layer="51"/>
<wire x1="2.54" y1="-3.048" x2="3.048" y2="-2.54" width="0.1524" layer="51"/>
<wire x1="3.048" y1="-2.54" x2="3.048" y2="-1.016" width="0.1524" layer="51"/>
<wire x1="-2.54" y1="3.048" x2="-3.048" y2="2.54" width="0.1524" layer="51"/>
<wire x1="-3.048" y1="2.54" x2="-3.048" y2="1.016" width="0.1524" layer="51"/>
<wire x1="-2.54" y1="-3.048" x2="-3.048" y2="-2.54" width="0.1524" layer="51"/>
<wire x1="-3.048" y1="-2.54" x2="-3.048" y2="-1.016" width="0.1524" layer="51"/>
<wire x1="-1.27" y1="1.27" x2="-1.27" y2="-1.27" width="0.0508" layer="51"/>
<wire x1="1.27" y1="-1.27" x2="-1.27" y2="-1.27" width="0.0508" layer="51"/>
<wire x1="1.27" y1="-1.27" x2="1.27" y2="1.27" width="0.0508" layer="51"/>
<wire x1="-1.27" y1="1.27" x2="1.27" y2="1.27" width="0.0508" layer="51"/>
<wire x1="-1.27" y1="3.048" x2="-1.27" y2="2.794" width="0.0508" layer="21"/>
<wire x1="1.27" y1="2.794" x2="-1.27" y2="2.794" width="0.0508" layer="21"/>
<wire x1="1.27" y1="2.794" x2="1.27" y2="3.048" width="0.0508" layer="21"/>
<wire x1="1.143" y1="-2.794" x2="-1.27" y2="-2.794" width="0.0508" layer="21"/>
<wire x1="1.143" y1="-2.794" x2="1.143" y2="-3.048" width="0.0508" layer="21"/>
<wire x1="-1.27" y1="-2.794" x2="-1.27" y2="-3.048" width="0.0508" layer="21"/>
<wire x1="2.54" y1="-3.048" x2="2.159" y2="-3.048" width="0.1524" layer="51"/>
<wire x1="-2.54" y1="-3.048" x2="-2.159" y2="-3.048" width="0.1524" layer="51"/>
<wire x1="-2.159" y1="-3.048" x2="-1.27" y2="-3.048" width="0.1524" layer="21"/>
<wire x1="-2.54" y1="3.048" x2="-2.159" y2="3.048" width="0.1524" layer="51"/>
<wire x1="2.54" y1="3.048" x2="2.159" y2="3.048" width="0.1524" layer="51"/>
<wire x1="2.159" y1="3.048" x2="1.27" y2="3.048" width="0.1524" layer="21"/>
<wire x1="1.27" y1="3.048" x2="-1.27" y2="3.048" width="0.1524" layer="21"/>
<wire x1="-1.27" y1="3.048" x2="-2.159" y2="3.048" width="0.1524" layer="21"/>
<wire x1="-1.27" y1="-3.048" x2="1.143" y2="-3.048" width="0.1524" layer="21"/>
<wire x1="1.143" y1="-3.048" x2="2.159" y2="-3.048" width="0.1524" layer="21"/>
<wire x1="3.048" y1="-0.762" x2="3.048" y2="-1.016" width="0.1524" layer="21"/>
<wire x1="3.048" y1="0.762" x2="3.048" y2="1.016" width="0.1524" layer="21"/>
<wire x1="-3.048" y1="-0.762" x2="-3.048" y2="-1.016" width="0.1524" layer="21"/>
<wire x1="-3.048" y1="0.762" x2="-3.048" y2="1.016" width="0.1524" layer="21"/>
<wire x1="-1.27" y1="-2.159" x2="1.27" y2="-2.159" width="0.1524" layer="51"/>
<wire x1="1.27" y1="2.286" x2="-1.27" y2="2.286" width="0.1524" layer="51"/>
<wire x1="-2.413" y1="1.27" x2="-2.413" y2="0.508" width="0.1524" layer="51"/>
<wire x1="-2.413" y1="-0.508" x2="-2.413" y2="-1.27" width="0.1524" layer="51"/>
<wire x1="-2.413" y1="0.508" x2="-2.159" y2="-0.381" width="0.1524" layer="51"/>
<circle x="0" y="0" radius="1.778" width="0.1524" layer="21"/>
<circle x="-2.159" y="-2.159" radius="0.508" width="0.1524" layer="51"/>
<circle x="2.159" y="-2.032" radius="0.508" width="0.1524" layer="51"/>
<circle x="2.159" y="2.159" radius="0.508" width="0.1524" layer="51"/>
<circle x="-2.159" y="2.159" radius="0.508" width="0.1524" layer="51"/>
<circle x="0" y="0" radius="0.635" width="0.0508" layer="51"/>
<circle x="0" y="0" radius="0.254" width="0.1524" layer="21"/>
<smd name="1" x="-3.302" y="2.286" dx="2.286" dy="1.524" layer="1"/>
<smd name="2" x="3.302" y="2.286" dx="2.286" dy="1.524" layer="1"/>
<smd name="3" x="-3.302" y="-2.286" dx="2.286" dy="1.524" layer="1"/>
<smd name="4" x="3.302" y="-2.286" dx="2.286" dy="1.524" layer="1"/>
<text x="-3.048" y="3.683" size="1.27" layer="25" ratio="10">&gt;NAME</text>
<text x="-3.048" y="-5.08" size="1.27" layer="27" ratio="10">&gt;VALUE</text>
<text x="-4.318" y="1.651" size="1.27" layer="51" ratio="10">1</text>
<text x="3.556" y="1.524" size="1.27" layer="51" ratio="10">2</text>
<text x="-4.572" y="-2.794" size="1.27" layer="51" ratio="10">3</text>
<text x="3.556" y="-2.794" size="1.27" layer="51" ratio="10">4</text>
</package>
<package name="EFOBM">
<smd name="1" x="-1.35" y="0" dx="3.9" dy="0.8" layer="1" rot="R90"/>
<smd name="2" x="0" y="0" dx="3.9" dy="0.8" layer="1" rot="R270"/>
<smd name="3" x="1.35" y="0" dx="3.9" dy="0.8" layer="1" rot="R270"/>
</package>
<package name="R1206">
<description>&lt;b&gt;RESISTOR&lt;/b&gt;</description>
<wire x1="0.9525" y1="-0.8128" x2="-0.9652" y2="-0.8128" width="0.1524" layer="51"/>
<wire x1="0.9525" y1="0.8128" x2="-0.9652" y2="0.8128" width="0.1524" layer="51"/>
<wire x1="-2.473" y1="0.983" x2="2.473" y2="0.983" width="0.0508" layer="39"/>
<wire x1="2.473" y1="0.983" x2="2.473" y2="-0.983" width="0.0508" layer="39"/>
<wire x1="2.473" y1="-0.983" x2="-2.473" y2="-0.983" width="0.0508" layer="39"/>
<wire x1="-2.473" y1="-0.983" x2="-2.473" y2="0.983" width="0.0508" layer="39"/>
<smd name="2" x="1.422" y="0" dx="1.6" dy="1.803" layer="1"/>
<smd name="1" x="-1.422" y="0" dx="1.6" dy="1.803" layer="1"/>
<text x="-1.27" y="1.27" size="1.27" layer="25">&gt;NAME</text>
<text x="-1.27" y="-2.54" size="1.27" layer="27">&gt;VALUE</text>
<rectangle x1="-1.6891" y1="-0.8763" x2="-0.9525" y2="0.8763" layer="51"/>
<rectangle x1="0.9525" y1="-0.8763" x2="1.6891" y2="0.8763" layer="51"/>
<rectangle x1="-0.3" y1="-0.7" x2="0.3" y2="0.7" layer="35"/>
</package>
<package name="R1206W">
<description>&lt;b&gt;RESISTOR&lt;/b&gt;&lt;p&gt;
wave soldering</description>
<wire x1="-0.913" y1="0.8" x2="0.888" y2="0.8" width="0.1524" layer="51"/>
<wire x1="-0.913" y1="-0.8" x2="0.888" y2="-0.8" width="0.1524" layer="51"/>
<wire x1="-2.473" y1="0.983" x2="2.473" y2="0.983" width="0.0508" layer="39"/>
<wire x1="2.473" y1="0.983" x2="2.473" y2="-0.983" width="0.0508" layer="39"/>
<wire x1="2.473" y1="-0.983" x2="-2.473" y2="-0.983" width="0.0508" layer="39"/>
<wire x1="-2.473" y1="-0.983" x2="-2.473" y2="0.983" width="0.0508" layer="39"/>
<smd name="1" x="-1.499" y="0" dx="1.8" dy="1.2" layer="1"/>
<smd name="2" x="1.499" y="0" dx="1.8" dy="1.2" layer="1"/>
<text x="-1.905" y="1.27" size="1.27" layer="25">&gt;NAME</text>
<text x="-1.905" y="-2.54" size="1.27" layer="27">&gt;VALUE</text>
<rectangle x1="-1.651" y1="-0.8763" x2="-0.9009" y2="0.8738" layer="51"/>
<rectangle x1="0.889" y1="-0.8763" x2="1.6391" y2="0.8738" layer="51"/>
<rectangle x1="-0.3" y1="-0.7" x2="0.3" y2="0.7" layer="35"/>
</package>
<package name="R1206FAB">
<wire x1="-2.032" y1="1.016" x2="2.032" y2="1.016" width="0.127" layer="21"/>
<wire x1="2.032" y1="1.016" x2="2.032" y2="-1.016" width="0.127" layer="21"/>
<wire x1="2.032" y1="-1.016" x2="-2.032" y2="-1.016" width="0.127" layer="21"/>
<wire x1="-2.032" y1="-1.016" x2="-2.032" y2="1.016" width="0.127" layer="21"/>
<smd name="1" x="-1.651" y="0" dx="1.27" dy="1.905" layer="1"/>
<smd name="2" x="1.651" y="0" dx="1.27" dy="1.905" layer="1"/>
<text x="-1.778" y="1.27" size="1.016" layer="25" ratio="15">&gt;NAME</text>
<text x="-1.778" y="-2.286" size="1.016" layer="27" ratio="15">&gt;VALUE</text>
</package>
<package name="LED1206">
<description>LED 1206 pads (standard pattern)</description>
<wire x1="0.9525" y1="-0.8128" x2="-0.9652" y2="-0.8128" width="0.1524" layer="51"/>
<wire x1="0.9525" y1="0.8128" x2="-0.9652" y2="0.8128" width="0.1524" layer="51"/>
<wire x1="-2.473" y1="0.983" x2="2.473" y2="0.983" width="0.0508" layer="39"/>
<wire x1="2.473" y1="0.983" x2="2.473" y2="-0.983" width="0.0508" layer="39"/>
<wire x1="2.473" y1="-0.983" x2="-2.473" y2="-0.983" width="0.0508" layer="39"/>
<wire x1="-2.473" y1="-0.983" x2="-2.473" y2="0.983" width="0.0508" layer="39"/>
<smd name="2" x="1.422" y="0" dx="1.6" dy="1.803" layer="1"/>
<smd name="1" x="-1.422" y="0" dx="1.6" dy="1.803" layer="1"/>
<text x="-1.27" y="1.27" size="1.27" layer="25">&gt;NAME</text>
<text x="-1.27" y="-2.54" size="1.27" layer="27">&gt;VALUE</text>
<rectangle x1="-1.6891" y1="-0.8763" x2="-0.9525" y2="0.8763" layer="51"/>
<rectangle x1="0.9525" y1="-0.8763" x2="1.6891" y2="0.8763" layer="51"/>
</package>
<package name="LED1206FAB">
<description>LED1206 FAB style (smaller pads to allow trace between)</description>
<wire x1="-2.032" y1="1.016" x2="2.032" y2="1.016" width="0.127" layer="21"/>
<wire x1="2.032" y1="1.016" x2="2.032" y2="-1.016" width="0.127" layer="21"/>
<wire x1="2.032" y1="-1.016" x2="-2.032" y2="-1.016" width="0.127" layer="21"/>
<wire x1="-2.032" y1="-1.016" x2="-2.032" y2="1.016" width="0.127" layer="21"/>
<smd name="1" x="-1.651" y="0" dx="1.27" dy="1.905" layer="1"/>
<smd name="2" x="1.651" y="0" dx="1.27" dy="1.905" layer="1"/>
<text x="-1.778" y="1.27" size="1.016" layer="25" ratio="15">&gt;NAME</text>
<text x="-1.778" y="-2.286" size="1.016" layer="27" ratio="15">&gt;VALUE</text>
</package>
<package name="5MM">
<description>5mm round through hole part.</description>
<wire x1="2.54" y1="-1.905" x2="2.54" y2="1.905" width="0.2032" layer="21"/>
<wire x1="2.54" y1="-1.905" x2="2.54" y2="1.905" width="0.254" layer="21" curve="-286.260205" cap="flat"/>
<wire x1="-1.143" y1="0" x2="0" y2="1.143" width="0.1524" layer="51" curve="-90" cap="flat"/>
<wire x1="0" y1="-1.143" x2="1.143" y2="0" width="0.1524" layer="51" curve="90" cap="flat"/>
<wire x1="-1.651" y1="0" x2="0" y2="1.651" width="0.1524" layer="51" curve="-90" cap="flat"/>
<wire x1="0" y1="-1.651" x2="1.651" y2="0" width="0.1524" layer="51" curve="90" cap="flat"/>
<wire x1="-2.159" y1="0" x2="0" y2="2.159" width="0.1524" layer="51" curve="-90" cap="flat"/>
<wire x1="0" y1="-2.159" x2="2.159" y2="0" width="0.1524" layer="51" curve="90" cap="flat"/>
<circle x="0" y="0" radius="2.54" width="0.1524" layer="21"/>
<pad name="IN" x="-1.27" y="0" drill="0.8128" diameter="1.4224"/>
<pad name="OUT" x="1.27" y="0" drill="0.8128" diameter="1.4224"/>
<text x="3.175" y="0.5334" size="1.27" layer="25" ratio="10">&gt;NAME</text>
<text x="3.2004" y="-1.8034" size="1.27" layer="27" ratio="10">&gt;VALUE</text>
</package>
<package name="C1206">
<description>&lt;b&gt;CAPACITOR&lt;/b&gt;</description>
<wire x1="-2.473" y1="0.983" x2="2.473" y2="0.983" width="0.0508" layer="39"/>
<wire x1="2.473" y1="-0.983" x2="-2.473" y2="-0.983" width="0.0508" layer="39"/>
<wire x1="-2.473" y1="-0.983" x2="-2.473" y2="0.983" width="0.0508" layer="39"/>
<wire x1="2.473" y1="0.983" x2="2.473" y2="-0.983" width="0.0508" layer="39"/>
<wire x1="-0.965" y1="0.787" x2="0.965" y2="0.787" width="0.1016" layer="51"/>
<wire x1="-0.965" y1="-0.787" x2="0.965" y2="-0.787" width="0.1016" layer="51"/>
<smd name="1" x="-1.4" y="0" dx="1.6" dy="1.8" layer="1"/>
<smd name="2" x="1.4" y="0" dx="1.6" dy="1.8" layer="1"/>
<text x="-1.27" y="1.27" size="1.27" layer="25">&gt;NAME</text>
<text x="-1.27" y="-2.54" size="1.27" layer="27">&gt;VALUE</text>
<rectangle x1="-1.7018" y1="-0.8509" x2="-0.9517" y2="0.8491" layer="51"/>
<rectangle x1="0.9517" y1="-0.8491" x2="1.7018" y2="0.8509" layer="51"/>
<rectangle x1="-0.1999" y1="-0.4001" x2="0.1999" y2="0.4001" layer="35"/>
</package>
<package name="C1206FAB">
<wire x1="-2.032" y1="1.016" x2="2.032" y2="1.016" width="0.127" layer="21"/>
<wire x1="2.032" y1="1.016" x2="2.032" y2="-1.016" width="0.127" layer="21"/>
<wire x1="2.032" y1="-1.016" x2="-2.032" y2="-1.016" width="0.127" layer="21"/>
<wire x1="-2.032" y1="-1.016" x2="-2.032" y2="1.016" width="0.127" layer="21"/>
<smd name="1" x="-1.651" y="0" dx="1.27" dy="1.905" layer="1"/>
<smd name="2" x="1.651" y="0" dx="1.27" dy="1.905" layer="1"/>
<text x="-1.778" y="1.27" size="1.016" layer="25" ratio="15">&gt;NAME</text>
<text x="-1.778" y="-2.286" size="1.016" layer="27" ratio="15">&gt;VALUE</text>
</package>
</packages>
<symbols>
<symbol name="ATTINY24/44/84">
<wire x1="-2.54" y1="17.78" x2="45.72" y2="17.78" width="0.254" layer="94"/>
<wire x1="45.72" y1="17.78" x2="45.72" y2="-17.78" width="0.254" layer="94"/>
<wire x1="45.72" y1="-17.78" x2="-2.54" y2="-17.78" width="0.254" layer="94"/>
<wire x1="-2.54" y1="-17.78" x2="-2.54" y2="17.78" width="0.254" layer="94"/>
<text x="-2.54" y="-20.32" size="1.778" layer="96">&gt;VALUE</text>
<text x="-2.54" y="18.542" size="1.778" layer="95">&gt;NAME</text>
<pin name="GND" x="-7.62" y="-15.24" length="middle" direction="pwr"/>
<pin name="VCC" x="-7.62" y="-2.54" length="middle" direction="pwr"/>
<pin name="(PCINT7/ICP/OC0B/ADC7)PA7" x="50.8" y="2.54" length="middle" rot="R180"/>
<pin name="(PCINT6/OC1A/SDA/MOSI/ADC6)PA6" x="50.8" y="0" length="middle" rot="R180"/>
<pin name="(PCINT5/OC1B/MISO/DO/ADC5)PA5" x="50.8" y="-2.54" length="middle" rot="R180"/>
<pin name="(PCINT4/T1/SCL/USCK/ADC4)PA4" x="50.8" y="-5.08" length="middle" rot="R180"/>
<pin name="(PCINT3/T0/ADC3)PA3" x="50.8" y="-7.62" length="middle" rot="R180"/>
<pin name="(PCINT2/AIN1/ADC2)PA2" x="50.8" y="-10.16" length="middle" rot="R180"/>
<pin name="(PCINT1/AIN0/ADC1)PA1" x="50.8" y="-12.7" length="middle" rot="R180"/>
<pin name="(PCINT0/AREF/ADC0)PA0" x="50.8" y="-15.24" length="middle" rot="R180"/>
<pin name="(PCINT11/RESET/DW)PB3" x="50.8" y="15.24" length="middle" rot="R180"/>
<pin name="(PCINT10/INT0/OC0A/CKOUT)PB2" x="50.8" y="12.7" length="middle" rot="R180"/>
<pin name="(PCINT9/XTAL2)PB1" x="50.8" y="10.16" length="middle" rot="R180"/>
<pin name="(PCINT8/XTAL1/CLKI)PB0" x="50.8" y="7.62" length="middle" rot="R180"/>
</symbol>
<symbol name="FTDI">
<pin name="GND" x="0" y="12.7" length="middle"/>
<pin name="CTS" x="0" y="10.16" length="middle"/>
<pin name="VCC" x="0" y="7.62" length="middle"/>
<pin name="TXD" x="0" y="5.08" length="middle"/>
<pin name="RXD" x="0" y="2.54" length="middle"/>
<wire x1="12.7" y1="17.018" x2="2.54" y2="17.018" width="0.254" layer="94"/>
<wire x1="2.54" y1="17.018" x2="2.54" y2="-4.064" width="0.254" layer="94"/>
<wire x1="2.54" y1="-4.064" x2="12.7" y2="-4.064" width="0.254" layer="94"/>
<wire x1="12.7" y1="-4.064" x2="12.7" y2="17.018" width="0.254" layer="94"/>
<pin name="RTS" x="0" y="0" length="middle"/>
<text x="3.81" y="14.478" size="1.778" layer="95">(Black)</text>
<text x="3.302" y="-3.048" size="1.778" layer="95">(Green)</text>
</symbol>
<symbol name="PINH2X3">
<wire x1="-6.35" y1="-5.08" x2="8.89" y2="-5.08" width="0.4064" layer="94"/>
<wire x1="8.89" y1="-5.08" x2="8.89" y2="5.08" width="0.4064" layer="94"/>
<wire x1="8.89" y1="5.08" x2="-6.35" y2="5.08" width="0.4064" layer="94"/>
<wire x1="-6.35" y1="5.08" x2="-6.35" y2="-5.08" width="0.4064" layer="94"/>
<text x="-6.35" y="5.715" size="1.778" layer="95">&gt;NAME</text>
<text x="-6.35" y="-7.62" size="1.778" layer="96">&gt;VALUE</text>
<pin name="1" x="-2.54" y="2.54" visible="pad" length="short" direction="pas" function="dot"/>
<pin name="2" x="5.08" y="2.54" visible="pad" length="short" direction="pas" function="dot" rot="R180"/>
<pin name="3" x="-2.54" y="0" visible="pad" length="short" direction="pas" function="dot"/>
<pin name="4" x="5.08" y="0" visible="pad" length="short" direction="pas" function="dot" rot="R180"/>
<pin name="5" x="-2.54" y="-2.54" visible="pad" length="short" direction="pas" function="dot"/>
<pin name="6" x="5.08" y="-2.54" visible="pad" length="short" direction="pas" function="dot" rot="R180"/>
</symbol>
<symbol name="TS2">
<wire x1="0" y1="1.905" x2="0" y2="2.54" width="0.254" layer="94"/>
<wire x1="-4.445" y1="1.905" x2="-3.175" y2="1.905" width="0.254" layer="94"/>
<wire x1="-4.445" y1="-1.905" x2="-3.175" y2="-1.905" width="0.254" layer="94"/>
<wire x1="-4.445" y1="1.905" x2="-4.445" y2="0" width="0.254" layer="94"/>
<wire x1="-4.445" y1="0" x2="-4.445" y2="-1.905" width="0.254" layer="94"/>
<wire x1="-2.54" y1="0" x2="-1.905" y2="0" width="0.1524" layer="94"/>
<wire x1="-1.27" y1="0" x2="-0.635" y2="0" width="0.1524" layer="94"/>
<wire x1="-4.445" y1="0" x2="-3.175" y2="0" width="0.1524" layer="94"/>
<wire x1="2.54" y1="2.54" x2="0" y2="2.54" width="0.1524" layer="94"/>
<wire x1="2.54" y1="-2.54" x2="0" y2="-2.54" width="0.1524" layer="94"/>
<wire x1="0" y1="-2.54" x2="-1.27" y2="1.905" width="0.254" layer="94"/>
<circle x="0" y="-2.54" radius="0.127" width="0.4064" layer="94"/>
<circle x="0" y="2.54" radius="0.127" width="0.4064" layer="94"/>
<text x="-6.35" y="-2.54" size="1.778" layer="95" rot="R90">&gt;NAME</text>
<text x="-3.81" y="3.175" size="1.778" layer="96" rot="R90">&gt;VALUE</text>
<pin name="P" x="0" y="-5.08" visible="pad" length="short" direction="pas" swaplevel="2" rot="R90"/>
<pin name="S" x="0" y="5.08" visible="pad" length="short" direction="pas" swaplevel="1" rot="R270"/>
<pin name="S1" x="2.54" y="5.08" visible="pad" length="short" direction="pas" swaplevel="1" rot="R270"/>
<pin name="P1" x="2.54" y="-5.08" visible="pad" length="short" direction="pas" swaplevel="2" rot="R90"/>
</symbol>
<symbol name="CERAMIC_RESONATOR">
<wire x1="-5.08" y1="2.54" x2="5.08" y2="2.54" width="0.254" layer="94"/>
<wire x1="5.08" y1="2.54" x2="5.08" y2="0" width="0.254" layer="94"/>
<wire x1="5.08" y1="0" x2="5.08" y2="-5.08" width="0.254" layer="94"/>
<wire x1="5.08" y1="-5.08" x2="0" y2="-5.08" width="0.254" layer="94"/>
<wire x1="0" y1="-5.08" x2="-5.08" y2="-5.08" width="0.254" layer="94"/>
<wire x1="-5.08" y1="-5.08" x2="-5.08" y2="0" width="0.254" layer="94"/>
<wire x1="-5.08" y1="0" x2="-5.08" y2="2.54" width="0.254" layer="94"/>
<wire x1="-5.08" y1="0" x2="-3.81" y2="0" width="0.1524" layer="94"/>
<wire x1="-3.81" y1="0" x2="-1.27" y2="0" width="0.1524" layer="94"/>
<wire x1="-1.27" y1="0" x2="-1.27" y2="1.27" width="0.1524" layer="94"/>
<wire x1="-1.27" y1="0" x2="-1.27" y2="-1.27" width="0.1524" layer="94"/>
<wire x1="-0.508" y1="1.27" x2="-0.508" y2="-1.27" width="0.1524" layer="94"/>
<wire x1="-0.508" y1="-1.27" x2="0.508" y2="-1.27" width="0.1524" layer="94"/>
<wire x1="0.508" y1="-1.27" x2="0.508" y2="1.27" width="0.1524" layer="94"/>
<wire x1="0.508" y1="1.27" x2="-0.508" y2="1.27" width="0.1524" layer="94"/>
<wire x1="1.27" y1="1.27" x2="1.27" y2="0" width="0.1524" layer="94"/>
<wire x1="1.27" y1="0" x2="1.27" y2="-1.27" width="0.1524" layer="94"/>
<wire x1="1.27" y1="0" x2="3.81" y2="0" width="0.1524" layer="94"/>
<wire x1="3.81" y1="0" x2="5.08" y2="0" width="0.1524" layer="94"/>
<wire x1="0" y1="-5.08" x2="0" y2="-3.302" width="0.1524" layer="94"/>
<wire x1="0" y1="-3.302" x2="-1.778" y2="-3.302" width="0.1524" layer="94"/>
<wire x1="0" y1="-3.302" x2="1.778" y2="-3.302" width="0.1524" layer="94"/>
<wire x1="1.778" y1="-2.286" x2="1.778" y2="-4.318" width="0.1524" layer="94"/>
<wire x1="2.54" y1="-2.286" x2="2.54" y2="-3.302" width="0.1524" layer="94"/>
<wire x1="2.54" y1="-3.302" x2="2.54" y2="-4.318" width="0.1524" layer="94"/>
<wire x1="2.54" y1="-3.302" x2="3.81" y2="-3.302" width="0.1524" layer="94"/>
<wire x1="3.81" y1="-3.302" x2="3.81" y2="0" width="0.1524" layer="94"/>
<wire x1="-1.778" y1="-2.286" x2="-1.778" y2="-4.318" width="0.1524" layer="94"/>
<wire x1="-2.54" y1="-2.286" x2="-2.54" y2="-3.302" width="0.1524" layer="94"/>
<wire x1="-2.54" y1="-3.302" x2="-2.54" y2="-4.318" width="0.1524" layer="94"/>
<wire x1="-2.54" y1="-3.302" x2="-3.81" y2="-3.302" width="0.1524" layer="94"/>
<wire x1="-3.81" y1="-3.302" x2="-3.81" y2="0" width="0.1524" layer="94"/>
<circle x="-3.81" y="0" radius="0.254" width="0" layer="94"/>
<circle x="3.81" y="0" radius="0.254" width="0" layer="94"/>
<circle x="0" y="-3.302" radius="0.254" width="0" layer="94"/>
<text x="-5.08" y="3.81" size="1.778" layer="95">&gt;NAME</text>
<text x="2.54" y="-7.62" size="1.778" layer="96">&gt;VALUE</text>
<pin name="1" x="-7.62" y="0" visible="pad" length="short" direction="pas"/>
<pin name="2" x="0" y="-7.62" visible="pad" length="short" direction="pas" rot="R90"/>
<pin name="3" x="7.62" y="0" visible="pad" length="short" direction="pas" rot="R180"/>
</symbol>
<symbol name="R-US">
<wire x1="-2.54" y1="0" x2="-2.159" y2="1.016" width="0.2032" layer="94"/>
<wire x1="-2.159" y1="1.016" x2="-1.524" y2="-1.016" width="0.2032" layer="94"/>
<wire x1="-1.524" y1="-1.016" x2="-0.889" y2="1.016" width="0.2032" layer="94"/>
<wire x1="-0.889" y1="1.016" x2="-0.254" y2="-1.016" width="0.2032" layer="94"/>
<wire x1="-0.254" y1="-1.016" x2="0.381" y2="1.016" width="0.2032" layer="94"/>
<wire x1="0.381" y1="1.016" x2="1.016" y2="-1.016" width="0.2032" layer="94"/>
<wire x1="1.016" y1="-1.016" x2="1.651" y2="1.016" width="0.2032" layer="94"/>
<wire x1="1.651" y1="1.016" x2="2.286" y2="-1.016" width="0.2032" layer="94"/>
<wire x1="2.286" y1="-1.016" x2="2.54" y2="0" width="0.2032" layer="94"/>
<text x="-3.81" y="1.4986" size="1.778" layer="95">&gt;NAME</text>
<text x="-3.81" y="-3.302" size="1.778" layer="96">&gt;VALUE</text>
<pin name="2" x="5.08" y="0" visible="off" length="short" direction="pas" swaplevel="1" rot="R180"/>
<pin name="1" x="-5.08" y="0" visible="off" length="short" direction="pas" swaplevel="1"/>
</symbol>
<symbol name="LED">
<description>LED</description>
<wire x1="1.27" y1="2.54" x2="0" y2="0" width="0.254" layer="94"/>
<wire x1="0" y1="0" x2="-1.27" y2="2.54" width="0.254" layer="94"/>
<wire x1="1.27" y1="0" x2="0" y2="0" width="0.254" layer="94"/>
<wire x1="0" y1="0" x2="-1.27" y2="0" width="0.254" layer="94"/>
<wire x1="1.27" y1="2.54" x2="0" y2="2.54" width="0.254" layer="94"/>
<wire x1="0" y1="2.54" x2="-1.27" y2="2.54" width="0.254" layer="94"/>
<wire x1="0" y1="2.54" x2="0" y2="0" width="0.1524" layer="94"/>
<wire x1="-2.032" y1="1.778" x2="-3.429" y2="0.381" width="0.1524" layer="94"/>
<wire x1="-1.905" y1="0.635" x2="-3.302" y2="-0.762" width="0.1524" layer="94"/>
<text x="3.556" y="-2.032" size="1.778" layer="95" rot="R90">&gt;NAME</text>
<text x="5.715" y="-2.032" size="1.778" layer="96" rot="R90">&gt;VALUE</text>
<pin name="C" x="0" y="-2.54" visible="off" length="short" direction="pas" rot="R90"/>
<pin name="A" x="0" y="5.08" visible="off" length="short" direction="pas" rot="R270"/>
<polygon width="0.1524" layer="94">
<vertex x="-3.429" y="0.381"/>
<vertex x="-3.048" y="1.27"/>
<vertex x="-2.54" y="0.762"/>
</polygon>
<polygon width="0.1524" layer="94">
<vertex x="-3.302" y="-0.762"/>
<vertex x="-2.921" y="0.127"/>
<vertex x="-2.413" y="-0.381"/>
</polygon>
</symbol>
<symbol name="CAP-NONPOLARIZED">
<description>non-polarized capacitor</description>
<wire x1="-1.778" y1="1.524" x2="-1.778" y2="0" width="0.254" layer="94"/>
<wire x1="-1.778" y1="0" x2="-1.778" y2="-1.524" width="0.254" layer="94"/>
<wire x1="-0.762" y1="1.524" x2="-0.762" y2="0" width="0.254" layer="94"/>
<wire x1="-0.762" y1="0" x2="-0.762" y2="-1.524" width="0.254" layer="94"/>
<wire x1="-2.54" y1="0" x2="-1.778" y2="0" width="0.1524" layer="94"/>
<wire x1="-0.762" y1="0" x2="0" y2="0" width="0.1524" layer="94"/>
<text x="-3.81" y="2.54" size="1.778" layer="95">&gt;NAME</text>
<text x="-3.81" y="-3.81" size="1.778" layer="96">&gt;VALUE</text>
<pin name="1" x="-5.08" y="0" visible="off" length="short" direction="pas" swaplevel="1"/>
<pin name="2" x="2.54" y="0" visible="off" length="short" direction="pas" swaplevel="1" rot="R180"/>
</symbol>
</symbols>
<devicesets>
<deviceset name="ATTINY44" prefix="IC">
<gates>
<gate name="1" symbol="ATTINY24/44/84" x="0" y="0"/>
</gates>
<devices>
<device name="-SSU" package="SOIC14">
<connects>
<connect gate="1" pin="(PCINT0/AREF/ADC0)PA0" pad="13"/>
<connect gate="1" pin="(PCINT1/AIN0/ADC1)PA1" pad="12"/>
<connect gate="1" pin="(PCINT10/INT0/OC0A/CKOUT)PB2" pad="5"/>
<connect gate="1" pin="(PCINT11/RESET/DW)PB3" pad="4"/>
<connect gate="1" pin="(PCINT2/AIN1/ADC2)PA2" pad="11"/>
<connect gate="1" pin="(PCINT3/T0/ADC3)PA3" pad="10"/>
<connect gate="1" pin="(PCINT4/T1/SCL/USCK/ADC4)PA4" pad="9"/>
<connect gate="1" pin="(PCINT5/OC1B/MISO/DO/ADC5)PA5" pad="8"/>
<connect gate="1" pin="(PCINT6/OC1A/SDA/MOSI/ADC6)PA6" pad="7"/>
<connect gate="1" pin="(PCINT7/ICP/OC0B/ADC7)PA7" pad="6"/>
<connect gate="1" pin="(PCINT8/XTAL1/CLKI)PB0" pad="2"/>
<connect gate="1" pin="(PCINT9/XTAL2)PB1" pad="3"/>
<connect gate="1" pin="GND" pad="14"/>
<connect gate="1" pin="VCC" pad="1"/>
</connects>
<technologies>
<technology name=""/>
</technologies>
</device>
<device name="-PU" package="DIL14">
<connects>
<connect gate="1" pin="(PCINT0/AREF/ADC0)PA0" pad="13"/>
<connect gate="1" pin="(PCINT1/AIN0/ADC1)PA1" pad="12"/>
<connect gate="1" pin="(PCINT10/INT0/OC0A/CKOUT)PB2" pad="5"/>
<connect gate="1" pin="(PCINT11/RESET/DW)PB3" pad="4"/>
<connect gate="1" pin="(PCINT2/AIN1/ADC2)PA2" pad="11"/>
<connect gate="1" pin="(PCINT3/T0/ADC3)PA3" pad="10"/>
<connect gate="1" pin="(PCINT4/T1/SCL/USCK/ADC4)PA4" pad="9"/>
<connect gate="1" pin="(PCINT5/OC1B/MISO/DO/ADC5)PA5" pad="8"/>
<connect gate="1" pin="(PCINT6/OC1A/SDA/MOSI/ADC6)PA6" pad="7"/>
<connect gate="1" pin="(PCINT7/ICP/OC0B/ADC7)PA7" pad="6"/>
<connect gate="1" pin="(PCINT8/XTAL1/CLKI)PB0" pad="2"/>
<connect gate="1" pin="(PCINT9/XTAL2)PB1" pad="3"/>
<connect gate="1" pin="GND" pad="14"/>
<connect gate="1" pin="VCC" pad="1"/>
</connects>
<technologies>
<technology name=""/>
</technologies>
</device>
<device name="-MU" package="QFN/MLF20">
<connects>
<connect gate="1" pin="(PCINT0/AREF/ADC0)PA0" pad="5"/>
<connect gate="1" pin="(PCINT1/AIN0/ADC1)PA1" pad="4"/>
<connect gate="1" pin="(PCINT10/INT0/OC0A/CKOUT)PB2" pad="14"/>
<connect gate="1" pin="(PCINT11/RESET/DW)PB3" pad="13"/>
<connect gate="1" pin="(PCINT2/AIN1/ADC2)PA2" pad="3"/>
<connect gate="1" pin="(PCINT3/T0/ADC3)PA3" pad="2"/>
<connect gate="1" pin="(PCINT4/T1/SCL/USCK/ADC4)PA4" pad="1"/>
<connect gate="1" pin="(PCINT5/OC1B/MISO/DO/ADC5)PA5" pad="20"/>
<connect gate="1" pin="(PCINT6/OC1A/SDA/MOSI/ADC6)PA6" pad="16"/>
<connect gate="1" pin="(PCINT7/ICP/OC0B/ADC7)PA7" pad="15"/>
<connect gate="1" pin="(PCINT8/XTAL1/CLKI)PB0" pad="11"/>
<connect gate="1" pin="(PCINT9/XTAL2)PB1" pad="12"/>
<connect gate="1" pin="GND" pad="8"/>
<connect gate="1" pin="VCC" pad="9"/>
</connects>
<technologies>
<technology name=""/>
</technologies>
</device>
</devices>
</deviceset>
<deviceset name="FTDI-SMD-HEADER">
<gates>
<gate name="G$1" symbol="FTDI" x="-7.62" y="-5.08"/>
</gates>
<devices>
<device name="" package="1X06SMD">
<connects>
<connect gate="G$1" pin="CTS" pad="2"/>
<connect gate="G$1" pin="GND" pad="1"/>
<connect gate="G$1" pin="RTS" pad="6"/>
<connect gate="G$1" pin="RXD" pad="5"/>
<connect gate="G$1" pin="TXD" pad="4"/>
<connect gate="G$1" pin="VCC" pad="3"/>
</connects>
<technologies>
<technology name=""/>
</technologies>
</device>
</devices>
</deviceset>
<deviceset name="PINHD-2X3-SMD" prefix="JP" uservalue="yes">
<description>&lt;b&gt;PIN HEADER&lt;/b&gt;</description>
<gates>
<gate name="A" symbol="PINH2X3" x="0" y="0"/>
</gates>
<devices>
<device name="" package="2X03SMD">
<connects>
<connect gate="A" pin="1" pad="1"/>
<connect gate="A" pin="2" pad="2"/>
<connect gate="A" pin="3" pad="3"/>
<connect gate="A" pin="4" pad="4"/>
<connect gate="A" pin="5" pad="5"/>
<connect gate="A" pin="6" pad="6"/>
</connects>
<technologies>
<technology name=""/>
</technologies>
</device>
</devices>
</deviceset>
<deviceset name="6MM_SWITCH" prefix="S" uservalue="yes">
<description>&lt;b&gt;OMRON SWITCH&lt;/b&gt;</description>
<gates>
<gate name="2" symbol="TS2" x="0" y="0"/>
</gates>
<devices>
<device name="6MM_SWITCH" package="6MM_SWITCH">
<connects>
<connect gate="2" pin="P" pad="1"/>
<connect gate="2" pin="P1" pad="2"/>
<connect gate="2" pin="S" pad="3"/>
<connect gate="2" pin="S1" pad="4"/>
</connects>
<technologies>
<technology name=""/>
</technologies>
</device>
</devices>
</deviceset>
<deviceset name="RESONATOR">
<gates>
<gate name="G$1" symbol="CERAMIC_RESONATOR" x="0" y="0"/>
</gates>
<devices>
<device name="" package="EFOBM">
<connects>
<connect gate="G$1" pin="1" pad="1"/>
<connect gate="G$1" pin="2" pad="2"/>
<connect gate="G$1" pin="3" pad="3"/>
</connects>
<technologies>
<technology name=""/>
</technologies>
</device>
</devices>
</deviceset>
<deviceset name="RES-US" prefix="R" uservalue="yes">
<description>&lt;b&gt;Resistor (US Symbol)&lt;/b&gt;
&lt;p&gt;
Variants with postfix FAB are widened to allow the routing of internal traces</description>
<gates>
<gate name="G$1" symbol="R-US" x="0" y="0"/>
</gates>
<devices>
<device name="1206" package="R1206">
<connects>
<connect gate="G$1" pin="1" pad="1"/>
<connect gate="G$1" pin="2" pad="2"/>
</connects>
<technologies>
<technology name=""/>
</technologies>
</device>
<device name="1206W" package="R1206W">
<connects>
<connect gate="G$1" pin="1" pad="1"/>
<connect gate="G$1" pin="2" pad="2"/>
</connects>
<technologies>
<technology name=""/>
</technologies>
</device>
<device name="1206FAB" package="R1206FAB">
<connects>
<connect gate="G$1" pin="1" pad="1"/>
<connect gate="G$1" pin="2" pad="2"/>
</connects>
<technologies>
<technology name=""/>
</technologies>
</device>
</devices>
</deviceset>
<deviceset name="LED">
<description>LED</description>
<gates>
<gate name="G$1" symbol="LED" x="0" y="0"/>
</gates>
<devices>
<device name="" package="LED1206">
<connects>
<connect gate="G$1" pin="A" pad="1"/>
<connect gate="G$1" pin="C" pad="2"/>
</connects>
<technologies>
<technology name=""/>
</technologies>
</device>
<device name="FAB1206" package="LED1206FAB">
<connects>
<connect gate="G$1" pin="A" pad="1"/>
<connect gate="G$1" pin="C" pad="2"/>
</connects>
<technologies>
<technology name=""/>
</technologies>
</device>
<device name="5MM" package="5MM">
<connects>
<connect gate="G$1" pin="A" pad="IN"/>
<connect gate="G$1" pin="C" pad="OUT"/>
</connects>
<technologies>
<technology name=""/>
</technologies>
</device>
</devices>
</deviceset>
<deviceset name="CAP-UNPOLARIZED" prefix="C" uservalue="yes">
<gates>
<gate name="&gt;NAME" symbol="CAP-NONPOLARIZED" x="0" y="0"/>
</gates>
<devices>
<device name="" package="C1206">
<connects>
<connect gate="&gt;NAME" pin="1" pad="1"/>
<connect gate="&gt;NAME" pin="2" pad="2"/>
</connects>
<technologies>
<technology name=""/>
</technologies>
</device>
<device name="FAB" package="C1206FAB">
<connects>
<connect gate="&gt;NAME" pin="1" pad="1"/>
<connect gate="&gt;NAME" pin="2" pad="2"/>
</connects>
<technologies>
<technology name=""/>
</technologies>
</device>
</devices>
</deviceset>
</devicesets>
</library>
<library name="supply1">
<description>&lt;b&gt;Supply Symbols&lt;/b&gt;&lt;p&gt;
 GND, VCC, 0V, +5V, -5V, etc.&lt;p&gt;
 Please keep in mind, that these devices are necessary for the
 automatic wiring of the supply signals.&lt;p&gt;
 The pin name defined in the symbol is identical to the net which is to be wired automatically.&lt;p&gt;
 In this library the device names are the same as the pin names of the symbols, therefore the correct signal names appear next to the supply symbols in the schematic.&lt;p&gt;
 &lt;author&gt;Created by librarian@cadsoft.de&lt;/author&gt;</description>
<packages>
</packages>
<symbols>
<symbol name="VCC">
<wire x1="1.27" y1="-1.905" x2="0" y2="0" width="0.254" layer="94"/>
<wire x1="0" y1="0" x2="-1.27" y2="-1.905" width="0.254" layer="94"/>
<text x="-2.54" y="-2.54" size="1.778" layer="96" rot="R90">&gt;VALUE</text>
<pin name="VCC" x="0" y="-2.54" visible="off" length="short" direction="sup" rot="R90"/>
</symbol>
<symbol name="GND">
<wire x1="-1.905" y1="0" x2="1.905" y2="0" width="0.254" layer="94"/>
<text x="-2.54" y="-2.54" size="1.778" layer="96">&gt;VALUE</text>
<pin name="GND" x="0" y="2.54" visible="off" length="short" direction="sup" rot="R270"/>
</symbol>
</symbols>
<devicesets>
<deviceset name="VCC" prefix="P+">
<description>&lt;b&gt;SUPPLY SYMBOL&lt;/b&gt;</description>
<gates>
<gate name="VCC" symbol="VCC" x="0" y="0"/>
</gates>
<devices>
<device name="">
<technologies>
<technology name=""/>
</technologies>
</device>
</devices>
</deviceset>
<deviceset name="GND" prefix="GND">
<description>&lt;b&gt;SUPPLY SYMBOL&lt;/b&gt;</description>
<gates>
<gate name="1" symbol="GND" x="0" y="0"/>
</gates>
<devices>
<device name="">
<technologies>
<technology name=""/>
</technologies>
</device>
</devices>
</deviceset>
</devicesets>
</library>
</libraries>
<attributes>
</attributes>
<variantdefs>
</variantdefs>
<classes>
<class number="0" name="default" width="0" drill="0">
</class>
</classes>
<parts>
<part name="IC1" library="fab" deviceset="ATTINY44" device="-SSU"/>
<part name="JP2" library="fab" deviceset="FTDI-SMD-HEADER" device=""/>
<part name="JP1" library="fab" deviceset="PINHD-2X3-SMD" device=""/>
<part name="S1" library="fab" deviceset="6MM_SWITCH" device="6MM_SWITCH"/>
<part name="U$2" library="fab" deviceset="RESONATOR" device=""/>
<part name="R1" library="fab" deviceset="RES-US" device="1206" value="10k"/>
<part name="R3" library="fab" deviceset="RES-US" device="1206" value="10k"/>
<part name="R2" library="fab" deviceset="RES-US" device="1206" value="499"/>
<part name="D1" library="fab" deviceset="LED" device=""/>
<part name="C2" library="fab" deviceset="CAP-UNPOLARIZED" device="" value="1uf"/>
<part name="P+1" library="supply1" deviceset="VCC" device=""/>
<part name="P+2" library="supply1" deviceset="VCC" device=""/>
<part name="P+3" library="supply1" deviceset="VCC" device=""/>
<part name="P+4" library="supply1" deviceset="VCC" device=""/>
<part name="P+6" library="supply1" deviceset="VCC" device=""/>
<part name="GND1" library="supply1" deviceset="GND" device=""/>
<part name="GND2" library="supply1" deviceset="GND" device=""/>
<part name="GND3" library="supply1" deviceset="GND" device=""/>
<part name="GND4" library="supply1" deviceset="GND" device=""/>
</parts>
<sheets>
<sheet>
<plain>
</plain>
<instances>
<instance part="IC1" gate="1" x="-73.66" y="177.8"/>
<instance part="JP2" gate="G$1" x="22.86" y="162.56"/>
<instance part="JP1" gate="A" x="-50.8" y="213.36"/>
<instance part="S1" gate="2" x="2.54" y="208.28"/>
<instance part="U$2" gate="G$1" x="2.54" y="185.42"/>
<instance part="R1" gate="G$1" x="-12.7" y="200.66" rot="R90"/>
<instance part="R3" gate="G$1" x="2.54" y="226.06" rot="R90"/>
<instance part="R2" gate="G$1" x="35.56" y="218.44" rot="R180"/>
<instance part="D1" gate="G$1" x="25.4" y="228.6"/>
<instance part="C2" gate="&gt;NAME" x="-91.44" y="170.18" rot="R90"/>
<instance part="P+1" gate="VCC" x="-91.44" y="180.34"/>
<instance part="P+2" gate="VCC" x="-38.1" y="226.06"/>
<instance part="P+3" gate="VCC" x="2.54" y="236.22"/>
<instance part="P+4" gate="VCC" x="25.4" y="238.76"/>
<instance part="P+6" gate="VCC" x="-12.7" y="210.82"/>
<instance part="GND1" gate="1" x="-91.44" y="154.94"/>
<instance part="GND2" gate="1" x="10.16" y="170.18"/>
<instance part="GND3" gate="1" x="2.54" y="198.12"/>
<instance part="GND4" gate="1" x="-38.1" y="203.2"/>
</instances>
<busses>
</busses>
<nets>
<net name="VCC" class="0">
<segment>
<pinref part="IC1" gate="1" pin="VCC"/>
<wire x1="-81.28" y1="175.26" x2="-91.44" y2="175.26" width="0.1524" layer="91"/>
<pinref part="P+1" gate="VCC" pin="VCC"/>
<wire x1="-91.44" y1="175.26" x2="-91.44" y2="177.8" width="0.1524" layer="91"/>
<pinref part="C2" gate="&gt;NAME" pin="2"/>
<wire x1="-91.44" y1="172.72" x2="-91.44" y2="175.26" width="0.1524" layer="91"/>
<junction x="-91.44" y="175.26"/>
</segment>
<segment>
<pinref part="R1" gate="G$1" pin="2"/>
<pinref part="P+6" gate="VCC" pin="VCC"/>
<wire x1="-12.7" y1="205.74" x2="-12.7" y2="208.28" width="0.1524" layer="91"/>
</segment>
<segment>
<pinref part="R3" gate="G$1" pin="2"/>
<pinref part="P+3" gate="VCC" pin="VCC"/>
<wire x1="2.54" y1="231.14" x2="2.54" y2="233.68" width="0.1524" layer="91"/>
</segment>
<segment>
<pinref part="JP1" gate="A" pin="2"/>
<wire x1="-45.72" y1="215.9" x2="-38.1" y2="215.9" width="0.1524" layer="91"/>
<pinref part="P+2" gate="VCC" pin="VCC"/>
<wire x1="-38.1" y1="215.9" x2="-38.1" y2="223.52" width="0.1524" layer="91"/>
</segment>
<segment>
<pinref part="D1" gate="G$1" pin="A"/>
<pinref part="P+4" gate="VCC" pin="VCC"/>
<wire x1="25.4" y1="233.68" x2="25.4" y2="236.22" width="0.1524" layer="91"/>
</segment>
<segment>
<pinref part="JP2" gate="G$1" pin="VCC"/>
<wire x1="22.86" y1="170.18" x2="17.78" y2="170.18" width="0.1524" layer="91"/>
<label x="17.78" y="170.18" size="1.778" layer="95"/>
</segment>
</net>
<net name="GND" class="0">
<segment>
<pinref part="C2" gate="&gt;NAME" pin="1"/>
<wire x1="-91.44" y1="157.48" x2="-91.44" y2="162.56" width="0.1524" layer="91"/>
<pinref part="IC1" gate="1" pin="GND"/>
<wire x1="-91.44" y1="162.56" x2="-91.44" y2="165.1" width="0.1524" layer="91"/>
<wire x1="-81.28" y1="162.56" x2="-91.44" y2="162.56" width="0.1524" layer="91"/>
<junction x="-91.44" y="162.56"/>
<pinref part="GND1" gate="1" pin="GND"/>
</segment>
<segment>
<pinref part="JP2" gate="G$1" pin="GND"/>
<wire x1="22.86" y1="175.26" x2="10.16" y2="175.26" width="0.1524" layer="91"/>
<pinref part="U$2" gate="G$1" pin="2"/>
<wire x1="10.16" y1="175.26" x2="2.54" y2="175.26" width="0.1524" layer="91"/>
<wire x1="2.54" y1="175.26" x2="2.54" y2="177.8" width="0.1524" layer="91"/>
<wire x1="10.16" y1="172.72" x2="10.16" y2="175.26" width="0.1524" layer="91"/>
<junction x="10.16" y="175.26"/>
<pinref part="GND2" gate="1" pin="GND"/>
</segment>
<segment>
<pinref part="JP1" gate="A" pin="6"/>
<wire x1="-45.72" y1="210.82" x2="-38.1" y2="210.82" width="0.1524" layer="91"/>
<wire x1="-38.1" y1="210.82" x2="-38.1" y2="205.74" width="0.1524" layer="91"/>
<pinref part="GND4" gate="1" pin="GND"/>
</segment>
<segment>
<pinref part="S1" gate="2" pin="P"/>
<wire x1="2.54" y1="203.2" x2="2.54" y2="200.66" width="0.1524" layer="91"/>
<pinref part="S1" gate="2" pin="P1"/>
<wire x1="5.08" y1="203.2" x2="2.54" y2="203.2" width="0.1524" layer="91"/>
<junction x="2.54" y="203.2"/>
<pinref part="GND3" gate="1" pin="GND"/>
</segment>
</net>
<net name="N$1" class="0">
<segment>
<pinref part="IC1" gate="1" pin="(PCINT8/XTAL1/CLKI)PB0"/>
<pinref part="U$2" gate="G$1" pin="1"/>
<wire x1="-22.86" y1="185.42" x2="-5.08" y2="185.42" width="0.1524" layer="91"/>
</segment>
</net>
<net name="N$3" class="0">
<segment>
<pinref part="U$2" gate="G$1" pin="3"/>
<wire x1="10.16" y1="185.42" x2="12.7" y2="185.42" width="0.1524" layer="91"/>
<wire x1="12.7" y1="185.42" x2="12.7" y2="193.04" width="0.1524" layer="91"/>
<wire x1="12.7" y1="193.04" x2="-7.62" y2="193.04" width="0.1524" layer="91"/>
<wire x1="-7.62" y1="193.04" x2="-7.62" y2="187.96" width="0.1524" layer="91"/>
<pinref part="IC1" gate="1" pin="(PCINT9/XTAL2)PB1"/>
<wire x1="-7.62" y1="187.96" x2="-22.86" y2="187.96" width="0.1524" layer="91"/>
</segment>
</net>
<net name="MOSI" class="0">
<segment>
<pinref part="JP1" gate="A" pin="4"/>
<wire x1="-45.72" y1="213.36" x2="-33.02" y2="213.36" width="0.1524" layer="91"/>
<label x="-35.56" y="213.36" size="1.778" layer="95"/>
<label x="-35.56" y="213.36" size="1.778" layer="95"/>
</segment>
<segment>
<pinref part="IC1" gate="1" pin="(PCINT6/OC1A/SDA/MOSI/ADC6)PA6"/>
<wire x1="-22.86" y1="177.8" x2="-12.7" y2="177.8" width="0.1524" layer="91"/>
<label x="-17.78" y="177.8" size="1.778" layer="95"/>
</segment>
</net>
<net name="SCK" class="0">
<segment>
<pinref part="JP1" gate="A" pin="3"/>
<wire x1="-63.5" y1="213.36" x2="-53.34" y2="213.36" width="0.1524" layer="91"/>
<label x="-63.5" y="213.36" size="1.778" layer="95"/>
</segment>
<segment>
<pinref part="IC1" gate="1" pin="(PCINT4/T1/SCL/USCK/ADC4)PA4"/>
<wire x1="-12.7" y1="172.72" x2="-22.86" y2="172.72" width="0.1524" layer="91"/>
<label x="-17.78" y="172.72" size="1.778" layer="95"/>
</segment>
</net>
<net name="N$5" class="0">
<segment>
<pinref part="JP2" gate="G$1" pin="CTS"/>
<wire x1="22.86" y1="172.72" x2="17.78" y2="172.72" width="0.1524" layer="91"/>
</segment>
</net>
<net name="JP2" class="0">
<segment>
<pinref part="JP2" gate="G$1" pin="RTS"/>
<wire x1="22.86" y1="162.56" x2="17.78" y2="162.56" width="0.1524" layer="91"/>
</segment>
</net>
<net name="N$9" class="0">
<segment>
<pinref part="D1" gate="G$1" pin="C"/>
<pinref part="R2" gate="G$1" pin="2"/>
<wire x1="25.4" y1="226.06" x2="30.48" y2="218.44" width="0.1524" layer="91"/>
</segment>
</net>
<net name="LED" class="0">
<segment>
<pinref part="IC1" gate="1" pin="(PCINT10/INT0/OC0A/CKOUT)PB2"/>
<wire x1="-22.86" y1="190.5" x2="-12.7" y2="190.5" width="0.1524" layer="91"/>
<label x="-17.78" y="190.5" size="1.778" layer="95"/>
</segment>
<segment>
<pinref part="R2" gate="G$1" pin="1"/>
<wire x1="40.64" y1="218.44" x2="48.26" y2="218.44" width="0.1524" layer="91"/>
<label x="45.72" y="218.44" size="1.778" layer="95"/>
</segment>
</net>
<net name="SW" class="0">
<segment>
<pinref part="IC1" gate="1" pin="(PCINT7/ICP/OC0B/ADC7)PA7"/>
<wire x1="-22.86" y1="180.34" x2="-12.7" y2="180.34" width="0.1524" layer="91"/>
<label x="-17.78" y="180.34" size="1.778" layer="95"/>
</segment>
<segment>
<pinref part="R3" gate="G$1" pin="1"/>
<pinref part="S1" gate="2" pin="S"/>
<wire x1="2.54" y1="213.36" x2="2.54" y2="218.44" width="0.1524" layer="91"/>
<wire x1="2.54" y1="218.44" x2="2.54" y2="220.98" width="0.1524" layer="91"/>
<wire x1="2.54" y1="218.44" x2="12.7" y2="218.44" width="0.1524" layer="91"/>
<junction x="2.54" y="218.44"/>
<label x="12.7" y="218.44" size="1.778" layer="95"/>
<pinref part="S1" gate="2" pin="S1"/>
<wire x1="5.08" y1="213.36" x2="2.54" y2="213.36" width="0.1524" layer="91"/>
<junction x="2.54" y="213.36"/>
</segment>
</net>
<net name="N$19" class="0">
<segment>
<pinref part="IC1" gate="1" pin="(PCINT3/T0/ADC3)PA3"/>
<wire x1="-22.86" y1="170.18" x2="-12.7" y2="170.18" width="0.1524" layer="91"/>
</segment>
</net>
<net name="N$20" class="0">
<segment>
<pinref part="IC1" gate="1" pin="(PCINT2/AIN1/ADC2)PA2"/>
<wire x1="-22.86" y1="167.64" x2="-12.7" y2="167.64" width="0.1524" layer="91"/>
</segment>
</net>
<net name="RX" class="0">
<segment>
<pinref part="IC1" gate="1" pin="(PCINT1/AIN0/ADC1)PA1"/>
<wire x1="-22.86" y1="165.1" x2="-12.7" y2="165.1" width="0.1524" layer="91"/>
<label x="-17.78" y="165.1" size="1.778" layer="95"/>
</segment>
<segment>
<pinref part="JP2" gate="G$1" pin="RXD"/>
<wire x1="22.86" y1="165.1" x2="17.78" y2="165.1" width="0.1524" layer="91"/>
<label x="17.78" y="165.1" size="1.778" layer="95"/>
</segment>
</net>
<net name="TX" class="0">
<segment>
<pinref part="IC1" gate="1" pin="(PCINT0/AREF/ADC0)PA0"/>
<wire x1="-22.86" y1="162.56" x2="-12.7" y2="162.56" width="0.1524" layer="91"/>
<label x="-17.78" y="162.56" size="1.778" layer="95"/>
</segment>
<segment>
<pinref part="JP2" gate="G$1" pin="TXD"/>
<wire x1="22.86" y1="167.64" x2="17.78" y2="167.64" width="0.1524" layer="91"/>
<label x="17.78" y="167.64" size="1.778" layer="95"/>
</segment>
</net>
<net name="MISO" class="0">
<segment>
<pinref part="JP1" gate="A" pin="1"/>
<wire x1="-53.34" y1="215.9" x2="-63.5" y2="215.9" width="0.1524" layer="91"/>
<label x="-58.42" y="218.44" size="1.778" layer="95" rot="R180"/>
</segment>
<segment>
<pinref part="IC1" gate="1" pin="(PCINT5/OC1B/MISO/DO/ADC5)PA5"/>
<wire x1="-22.86" y1="175.26" x2="-12.7" y2="175.26" width="0.1524" layer="91"/>
<label x="-17.78" y="175.26" size="1.778" layer="95"/>
</segment>
</net>
<net name="RST" class="0">
<segment>
<pinref part="JP1" gate="A" pin="5"/>
<wire x1="-63.5" y1="210.82" x2="-53.34" y2="210.82" width="0.1524" layer="91"/>
<label x="-63.5" y="210.82" size="1.778" layer="95"/>
</segment>
<segment>
<pinref part="IC1" gate="1" pin="(PCINT11/RESET/DW)PB3"/>
<pinref part="R1" gate="G$1" pin="1"/>
<wire x1="-22.86" y1="193.04" x2="-12.7" y2="193.04" width="0.1524" layer="91"/>
<wire x1="-12.7" y1="193.04" x2="-12.7" y2="195.58" width="0.1524" layer="91"/>
<label x="-17.78" y="193.04" size="1.778" layer="95"/>
</segment>
</net>
</nets>
</sheet>
</sheets>
</schematic>
</drawing>
</eagle>
