%!PS-Adobe-3.0 EPSF-3.0
%%Title: EAGLE Drawing /Users/isaacpierreracine/Documents/eagle/light potentiometer/light sensor.brd
%%Creator: EAGLE
%%Pages: 1
%%BoundingBox: 0 0 103 74
%%EndComments

% Coordinate transfer:

/EU { 254 div 0.072 mul } def
/inch { 72 mul } def

% Linestyle:

1 setlinecap
1 setlinejoin

% Drawing functions:

/l {  % draw a line
   /lw exch def
   /y2 exch def
   /x2 exch def
   /y1 exch def
   /x1 exch def
   newpath
   x1 EU y1 EU moveto
   x2 EU y2 EU lineto
   lw EU setlinewidth
   stroke
   } def

/h {  % draw a hole
   /d  exch def
   /y  exch def
   /x  exch def
   d 0 gt {
     newpath
     x EU y EU d 2 div EU 0 360 arc
     currentgray dup
     1 exch sub setgray
     fill
     setgray
     } if
   } def

/b {  % draw a bar
   /an exch def
   /y2 exch def
   /x2 exch def
   /y1 exch def
   /x1 exch def
   /w2 x2 x1 sub 2 div EU def
   /h2 y2 y1 sub 2 div EU def
   gsave
   x1 x2 add 2 div EU y1 y2 add 2 div EU translate
   an rotate
   newpath
   w2     h2     moveto
   w2 neg h2     lineto
   w2 neg h2 neg lineto
   w2     h2 neg lineto
   closepath
   fill
   grestore
   } def

/c {  % draw a circle
   /lw exch def
   /rd exch def
   /y  exch def
   /x  exch def
   newpath
   lw EU setlinewidth
   x EU y EU rd EU 0 360 arc
   stroke
   } def

/a {  % draw an arc
   /lc exch def
   /ae exch def
   /as exch def
   /lw exch def
   /rd exch def
   /y  exch def
   /x  exch def
   lw rd 2 mul gt {
     /rd rd lw 2 div add 2 div def
     /lw rd 2 mul def
     } if
   currentlinecap currentlinejoin
   lc setlinecap 0 setlinejoin
   newpath
   lw EU setlinewidth
   x EU y EU rd EU as ae arc
   stroke
   setlinejoin setlinecap
   } def

/p {  % draw a pie
   /d exch def
   /y exch def
   /x exch def
   newpath
   x EU y EU d 2 div EU 0 360 arc
   fill
   } def

/edge { 0.20710678119 mul } def

/o {  % draw an octagon
   /an exch def
   /dy exch def
   /dx exch def
   /y  exch def
   /x  exch def
   gsave
   x EU y EU translate
   an dx dy lt { 90 add /dx dy /dy dx def def } if rotate
   newpath
      0 dx 2 div sub EU                    0 dy edge  add EU moveto
      0 dx dy sub 2 div sub dy edge sub EU 0 dy 2 div add EU lineto
      0 dx dy sub 2 div add dy edge add EU 0 dy 2 div add EU lineto
      0 dx 2 div add EU                    0 dy edge  add EU lineto
      0 dx 2 div add EU                    0 dy edge  sub EU lineto
      0 dx dy sub 2 div add dy edge add EU 0 dy 2 div sub EU lineto
      0 dx dy sub 2 div sub dy edge sub EU 0 dy 2 div sub EU lineto
      0 dx 2 div sub EU                    0 dy edge  sub EU lineto
   closepath
   fill
   grestore
   } def

261240 34565 277240 52565 90.0 b
261240 62565 277240 80565 90.0 b
230252 63024 246252 81054 90.0 b
230252 34584 246252 52614 90.0 b
62862 165644 78862 183674 0.0 b
34422 165644 50422 183674 0.0 b
194096 95377 199096 117377 180.0 b
181496 95377 186496 117377 180.0 b
168796 95377 173796 117377 180.0 b
156096 95377 161096 117377 180.0 b
194096 32297 199096 54297 180.0 b
181396 32297 186396 54297 180.0 b
168696 32297 173696 54297 180.0 b
155996 32297 160996 54297 180.0 b
321310 170341 346710 183041 0.0 b
321310 144941 346710 157641 0.0 b
321310 119541 346710 132241 0.0 b
321310 94141 346710 106841 0.0 b
321310 68741 346710 81441 0.0 b
321310 43341 346710 56041 0.0 b
93218 47659 118618 60359 180.0 b
93218 73059 118618 85759 180.0 b
93218 98459 118618 111159 180.0 b
38618 47659 64018 60359 180.0 b
38618 73059 64018 85759 180.0 b
38618 98459 64018 111159 180.0 b
91306 166145 106306 182145 270.0 b
91306 197145 106306 213145 270.0 b
177518 160161 16764 p
207518 160161 16764 p
237518 160161 16764 p
281560 133644 297560 151674 270.0 b
281560 162084 297560 180114 270.0 b
281560 190286 297560 208316 270.0 b
281560 218726 297560 236756 270.0 b
333756 176945 334010 176691 4064 l
334010 176691 310388 176691 4064 l
310388 176691 310388 227491 4064 l
310388 227491 289560 227491 4064 l
289560 227491 289560 227741 4064 l
237518 160161 268986 160161 4064 l
268986 160161 269240 71565 4064 l
192506 147263 192278 181263 4064 l
192278 181263 237010 181263 4064 l
237518 165007 237010 181263 4064 l
237518 165007 237518 160161 4064 l
289560 227741 236756 227995 4064 l
236756 227995 237010 181263 4064 l
58674 105053 51318 104809 4064 l
158814 119392 158850 121573 4064 l
158814 119392 158596 106377 4064 l
51318 104809 51816 104809 4064 l
51816 104809 51816 121573 4064 l
51816 121573 55880 121573 4064 l
56642 121827 158814 121573 4064 l
158814 121573 158814 119392 4064 l
55880 121573 56642 121827 4064 l
56642 121827 56642 204885 4064 l
56642 204885 98806 204631 4064 l
98806 204631 98806 205145 4064 l
98806 205145 118364 205145 4064 l
118364 205145 118364 143671 4064 l
118364 143671 192506 143671 4064 l
192506 143671 192506 147263 4064 l
196850 43297 196596 43297 4064 l
196850 43297 196850 80679 4064 l
334010 125129 334010 125891 4064 l
234442 43297 238252 43599 4064 l
334010 126145 334010 125891 4064 l
196596 43297 229616 43297 4064 l
229616 43297 238252 43599 4064 l
238252 43599 273812 43599 4064 l
273812 43599 269240 43565 4064 l
269240 43565 289814 44073 4064 l
289814 44073 289814 106079 4064 l
334010 125637 334010 125891 4064 l
289814 106079 289560 105825 4064 l
289560 125891 289560 105825 4064 l
289560 125891 289560 142659 4064 l
334010 125891 289560 125891 4064 l
127254 80679 127254 91855 4064 l
196850 80679 127254 80679 4064 l
51318 54009 27178 54009 4064 l
27178 91855 27178 54009 4064 l
27178 91855 27178 174659 4064 l
27178 174659 45470 174659 4064 l
127254 91855 27178 91855 4064 l
129794 236127 129794 159927 4064 l
129794 159927 177518 159927 4064 l
177518 159927 177518 160161 4064 l
42422 174659 42672 175167 4064 l
42672 175167 42672 235873 4064 l
129794 236127 129794 236133 4064 l
42672 235873 129794 236127 4064 l
171196 61629 140462 61629 4064 l
171196 61629 171196 43297 4064 l
140462 61629 140462 61375 4064 l
140462 61375 139954 53247 4064 l
139954 53247 104394 53247 4064 l
104394 53247 105918 54009 4064 l
183896 72297 183896 43297 4064 l
183896 43297 183642 43297 4064 l
183642 43297 183642 23783 4064 l
183642 23783 303784 23783 4064 l
303784 23783 303784 74837 4064 l
303784 74837 334010 74837 4064 l
334010 74837 334010 75091 4064 l
105918 79409 105918 67725 4064 l
105918 67725 130810 67725 4064 l
130810 67725 130810 72043 4064 l
130810 72043 183896 72043 4064 l
183896 72043 183896 72297 4064 l
158496 43297 158750 43297 4064 l
158750 43297 158750 25815 4064 l
158750 25815 78740 25815 4064 l
78740 25815 78740 79917 4064 l
78740 79917 51318 79409 4064 l
171296 106377 171196 106377 4064 l
171196 106377 171196 131733 4064 l
70862 174659 98806 174659 4064 l
98806 174659 98806 174145 4064 l
98806 131733 98806 174145 4064 l
171196 131733 98806 131733 4064 l
196842 90108 196596 106377 4064 l
196842 90108 196596 89061 4064 l
196596 89061 140462 89315 4064 l
196596 106377 196850 106377 4064 l
238252 72039 234442 73313 4064 l
196596 106377 213360 106377 4064 l
213360 106377 213360 71789 4064 l
213360 71789 238252 71789 4064 l
238252 71789 238252 72039 4064 l
140462 89315 138176 89315 4064 l
138176 89315 137922 104555 4064 l
137922 104555 105156 104555 4064 l
105156 104555 105918 104809 4064 l
183896 106477 183996 106377 4064 l
183996 106377 183896 106377 4064 l
183896 106377 183896 126145 4064 l
183896 126145 207518 126145 4064 l
207518 126145 207518 160161 4064 l
290068 199301 289560 199301 4064 l
289560 199301 289560 171099 4064 l
